\relax 
\providecommand\hyper@newdestlabel[2]{}
\citation{kn:Lip08}
\@writefile{toc}{\contentsline {chapter}{\numberline {A}Loren Ipsum}{41}{appendix.A}}
\@writefile{lof}{\addvspace {10\p@ }}
\@writefile{lot}{\addvspace {10\p@ }}
\newlabel{ap1:loren}{{A}{41}{Loren Ipsum}{appendix.A}{}}
\@writefile{toc}{\contentsline {section}{\numberline {A.1}O que \IeC {\'e} o \emph  {Loren Ipsum}?}{41}{section.A.1}}
\@writefile{toc}{\contentsline {section}{\numberline {A.2}De onde Vem o Loren?}{41}{section.A.2}}
\@writefile{toc}{\contentsline {section}{\numberline {A.3}Porque se usa o Loren?}{42}{section.A.3}}
\@writefile{toc}{\contentsline {section}{\numberline {A.4}Onde se Podem Encontrar Exemplos?}{42}{section.A.4}}
\@setckpt{appendix1}{
\setcounter{page}{43}
\setcounter{equation}{0}
\setcounter{enumi}{0}
\setcounter{enumii}{0}
\setcounter{enumiii}{0}
\setcounter{enumiv}{0}
\setcounter{footnote}{0}
\setcounter{mpfootnote}{0}
\setcounter{part}{0}
\setcounter{chapter}{1}
\setcounter{section}{4}
\setcounter{subsection}{0}
\setcounter{subsubsection}{0}
\setcounter{paragraph}{0}
\setcounter{subparagraph}{0}
\setcounter{figure}{0}
\setcounter{table}{0}
\setcounter{ContinuedFloat}{0}
\setcounter{linenumber}{0}
\setcounter{LN@truepage}{62}
\setcounter{Item}{0}
\setcounter{Hfootnote}{0}
\setcounter{bookmark@seq@number}{67}
\setcounter{float@type}{8}
\setcounter{AM@survey}{0}
\setcounter{LT@tables}{0}
\setcounter{LT@chunks}{0}
\setcounter{cp@cntr}{0}
\setcounter{lstnumber}{1}
\setcounter{section@level}{1}
\setcounter{lstlisting}{0}
}
