\relax 
\providecommand\hyper@newdestlabel[2]{}
\citation{Kn:AgileBI}
\@writefile{toc}{\contentsline {chapter}{\numberline {7}Conclus\IeC {\~o}es e Trabalho Futuro}{49}{chapter.7}}
\@writefile{lof}{\addvspace {10\p@ }}
\@writefile{lot}{\addvspace {10\p@ }}
\newlabel{chap:7}{{7}{49}{Conclusões e Trabalho Futuro}{chapter.7}{}}
\@writefile{toc}{\contentsline {section}{\numberline {7.1}Discuss\IeC {\~a}o dos Resultados}{49}{section.7.1}}
\@writefile{toc}{\contentsline {section}{\numberline {7.2}Conclus\IeC {\~o}es}{50}{section.7.2}}
\citation{Kn:Negash2004}
\@writefile{toc}{\contentsline {section}{\numberline {7.3}Satisfa\IeC {\c c}\IeC {\~a}o dos Objetivos}{51}{section.7.3}}
\@writefile{toc}{\contentsline {section}{\numberline {7.4}Benef\IeC {\'\i }cios verificados}{51}{section.7.4}}
\@writefile{toc}{\contentsline {section}{\numberline {7.5}Evolu\IeC {\c c}\IeC {\~a}o futura}{52}{section.7.5}}
\@setckpt{chapter7}{
\setcounter{page}{53}
\setcounter{equation}{0}
\setcounter{enumi}{0}
\setcounter{enumii}{0}
\setcounter{enumiii}{0}
\setcounter{enumiv}{0}
\setcounter{footnote}{0}
\setcounter{mpfootnote}{0}
\setcounter{part}{0}
\setcounter{chapter}{7}
\setcounter{section}{5}
\setcounter{subsection}{0}
\setcounter{subsubsection}{0}
\setcounter{paragraph}{0}
\setcounter{subparagraph}{0}
\setcounter{figure}{0}
\setcounter{table}{0}
\setcounter{ContinuedFloat}{0}
\setcounter{linenumber}{0}
\setcounter{LN@truepage}{72}
\setcounter{Item}{0}
\setcounter{Hfootnote}{0}
\setcounter{bookmark@seq@number}{59}
\setcounter{float@type}{8}
\setcounter{AM@survey}{0}
\setcounter{LT@tables}{0}
\setcounter{LT@chunks}{0}
\setcounter{cp@cntr}{0}
\setcounter{subfigure}{0}
\setcounter{subtable}{0}
\setcounter{lstnumber}{1}
\setcounter{section@level}{1}
\setcounter{lstlisting}{0}
}
