\relax 
\providecommand\hyper@newdestlabel[2]{}
\citation{Rasmussen}
\@writefile{toc}{\contentsline {chapter}{\numberline {5}Implementa\IeC {\c c}\IeC {\~a}o}{29}{chapter.5}}
\@writefile{lof}{\addvspace {10\p@ }}
\@writefile{lot}{\addvspace {10\p@ }}
\newlabel{chap:5}{{5}{29}{Implementação}{chapter.5}{}}
\@writefile{lof}{\contentsline {figure}{\numberline {5.1}{\ignorespaces Metodologia MIDAS e Metodologia MIGP\relax }}{30}{figure.caption.23}}
\newlabel{fig:arquitecture}{{5.1}{30}{Metodologia MIDAS e Metodologia MIGP\relax }{figure.caption.23}{}}
\@writefile{lof}{\contentsline {figure}{\numberline {5.2}{\ignorespaces Fases de desenvolvimento da Solu\IeC {\c c}\IeC {\~a}o\relax }}{30}{figure.caption.24}}
\newlabel{fig:arquitecture}{{5.2}{30}{Fases de desenvolvimento da Solução\relax }{figure.caption.24}{}}
\@writefile{toc}{\contentsline {section}{\numberline {5.1}An\IeC {\'a}lise, Desenho e Levantamento Funcional}{30}{section.5.1}}
\@writefile{lof}{\contentsline {figure}{\numberline {5.3}{\ignorespaces Plano de Trabalhos\relax }}{31}{figure.caption.25}}
\newlabel{fig:plano}{{5.3}{31}{Plano de Trabalhos\relax }{figure.caption.25}{}}
\@writefile{toc}{\contentsline {section}{\numberline {5.2}Desenvolvimento e Implementa\IeC {\c c}\IeC {\~a}o}{31}{section.5.2}}
\@writefile{toc}{\contentsline {subsection}{\numberline {5.2.1}Sistemas Fonte Operacionais}{31}{subsection.5.2.1}}
\@writefile{toc}{\contentsline {subsection}{\numberline {5.2.2}\textit  {Data Staging Area} }{32}{subsection.5.2.2}}
\@writefile{toc}{\contentsline {subsubsection}{\numberline {5.2.2.1}\textit  {Processing}}{32}{subsubsection.5.2.2.1}}
\@writefile{toc}{\contentsline {paragraph}{Dimens\IeC {\~a}o}{32}{section*.26}}
\@writefile{lof}{\contentsline {figure}{\numberline {5.4}{\ignorespaces Processo de \textit  {ETL} para a dimens\IeC {\~a}o da nacionalidade\relax }}{33}{figure.caption.27}}
\newlabel{fig:etldimensao}{{5.4}{33}{Processo de \textit {ETL} para a dimensão da nacionalidade\relax }{figure.caption.27}{}}
\@writefile{toc}{\contentsline {paragraph}{Facto}{33}{section*.28}}
\@writefile{lof}{\contentsline {figure}{\numberline {5.5}{\ignorespaces Processo de \textit  {ETL} para o carregamento do facto das vagas\relax }}{34}{figure.caption.29}}
\newlabel{fig:etlfacto}{{5.5}{34}{Processo de \textit {ETL} para o carregamento do facto das vagas\relax }{figure.caption.29}{}}
\@writefile{toc}{\contentsline {subsubsection}{\numberline {5.2.2.2}\textit  {Data Store} }{35}{subsubsection.5.2.2.2}}
\@writefile{lof}{\contentsline {figure}{\numberline {5.6}{\ignorespaces \textit  {Star-schema} para o facto das vagas\relax }}{35}{figure.caption.30}}
\newlabel{fig:starschemadw}{{5.6}{35}{\textit {Star-schema} para o facto das vagas\relax }{figure.caption.30}{}}
\@writefile{toc}{\contentsline {subsection}{\numberline {5.2.3}\textit  {Data Presentation Area} }{35}{subsection.5.2.3}}
\@writefile{lof}{\contentsline {figure}{\numberline {5.7}{\ignorespaces Estrutura da \textit  {Data Presentation Area} no \textit  {Visual Studio}\relax }}{36}{figure.caption.31}}
\newlabel{fig:camadafisicassas}{{5.7}{36}{Estrutura da \textit {Data Presentation Area} no \textit {Visual Studio}\relax }{figure.caption.31}{}}
\@writefile{toc}{\contentsline {subsubsection}{\numberline {5.2.3.1}Camada F\IeC {\'\i }sica}{36}{subsubsection.5.2.3.1}}
\@writefile{lof}{\contentsline {figure}{\numberline {5.8}{\ignorespaces Camada F\IeC {\'\i }sica da \textit  {Data Presentation Area}\relax }}{36}{figure.caption.32}}
\newlabel{fig:camadafisicassas}{{5.8}{36}{Camada Física da \textit {Data Presentation Area}\relax }{figure.caption.32}{}}
\@writefile{toc}{\contentsline {subsubsection}{\numberline {5.2.3.2}Camada de Neg\IeC {\'o}cio}{36}{subsubsection.5.2.3.2}}
\@writefile{lof}{\contentsline {figure}{\numberline {5.9}{\ignorespaces Camada de Neg\IeC {\'o}cio da \textit  {Data Presentation Area}\relax }}{37}{figure.caption.33}}
\newlabel{fig:camadanegociossas}{{5.9}{37}{Camada de Negócio da \textit {Data Presentation Area}\relax }{figure.caption.33}{}}
\@writefile{toc}{\contentsline {subsubsection}{\numberline {5.2.3.3}Camada de Apresenta\IeC {\c c}\IeC {\~a}o}{37}{subsubsection.5.2.3.3}}
\@writefile{toc}{\contentsline {paragraph}{Dimens\IeC {\~a}o}{37}{section*.34}}
\@writefile{lof}{\contentsline {figure}{\numberline {5.10}{\ignorespaces Exemplo da dimens\IeC {\~a}o temporal no \textit  {Visual Studio}\relax }}{38}{figure.caption.35}}
\newlabel{fig:dimensaossas}{{5.10}{38}{Exemplo da dimensão temporal no \textit {Visual Studio}\relax }{figure.caption.35}{}}
\@writefile{toc}{\contentsline {paragraph}{M\IeC {\'e}trica / Indicador}{38}{section*.36}}
\@writefile{lof}{\contentsline {figure}{\numberline {5.11}{\ignorespaces Exemplo da \textit  {bus matrix} no \textit  {Visual Studio}\relax }}{39}{figure.caption.37}}
\newlabel{fig:busmatrixssas}{{5.11}{39}{Exemplo da \textit {bus matrix} no \textit {Visual Studio}\relax }{figure.caption.37}{}}
\@writefile{lof}{\contentsline {figure}{\numberline {5.12}{\ignorespaces Sintaxe \textit  {MDX} para a cria\IeC {\c c}\IeC {\~a}o de indicadores\relax }}{40}{figure.caption.38}}
\newlabel{fig:mdxsintaxz}{{5.12}{40}{Sintaxe \textit {MDX} para a criação de indicadores\relax }{figure.caption.38}{}}
\@writefile{toc}{\contentsline {paragraph}{Base de dados anal\IeC {\'\i }tica}{40}{section*.39}}
\@writefile{toc}{\contentsline {subsubsection}{\numberline {5.2.3.4}Ferramentas de acesso aos dados}{40}{subsubsection.5.2.3.4}}
\@writefile{toc}{\contentsline {paragraph}{\textit  {Sharepoint}}{41}{section*.40}}
\@writefile{toc}{\contentsline {paragraph}{\textit  {Power BI}}{41}{section*.41}}
\@writefile{toc}{\contentsline {section}{\numberline {5.3}Forma\IeC {\c c}\IeC {\~a}o / Documenta\IeC {\c c}\IeC {\~a}o}{41}{section.5.3}}
\@writefile{toc}{\contentsline {section}{\numberline {5.4}Testes de Aceita\IeC {\c c}\IeC {\~a}o}{41}{section.5.4}}
\@writefile{lof}{\contentsline {figure}{\numberline {5.13}{\ignorespaces \textit  {Template} dos testes de aceita\IeC {\c c}\IeC {\~a}o realizados \IeC {\`a}s plataformas aplicacionais\relax }}{42}{figure.caption.42}}
\newlabel{fig:testes}{{5.13}{42}{\textit {Template} dos testes de aceitação realizados às plataformas aplicacionais\relax }{figure.caption.42}{}}
\@writefile{toc}{\contentsline {section}{\numberline {5.5}Entrada em Produ\IeC {\c c}\IeC {\~a}o}{42}{section.5.5}}
\@writefile{lof}{\contentsline {figure}{\numberline {5.14}{\ignorespaces Arquitetura final da solu\IeC {\c c}\IeC {\~a}o\relax }}{43}{figure.caption.43}}
\newlabel{fig:arquiteturafinal}{{5.14}{43}{Arquitetura final da solução\relax }{figure.caption.43}{}}
\@setckpt{chapter5}{
\setcounter{page}{44}
\setcounter{equation}{0}
\setcounter{enumi}{0}
\setcounter{enumii}{0}
\setcounter{enumiii}{0}
\setcounter{enumiv}{0}
\setcounter{footnote}{0}
\setcounter{mpfootnote}{0}
\setcounter{part}{0}
\setcounter{chapter}{5}
\setcounter{section}{5}
\setcounter{subsection}{0}
\setcounter{subsubsection}{4}
\setcounter{paragraph}{0}
\setcounter{subparagraph}{0}
\setcounter{figure}{14}
\setcounter{table}{0}
\setcounter{ContinuedFloat}{0}
\setcounter{linenumber}{0}
\setcounter{LN@truepage}{63}
\setcounter{Item}{0}
\setcounter{Hfootnote}{0}
\setcounter{bookmark@seq@number}{47}
\setcounter{float@type}{8}
\setcounter{AM@survey}{0}
\setcounter{LT@tables}{0}
\setcounter{LT@chunks}{0}
\setcounter{cp@cntr}{0}
\setcounter{subfigure}{0}
\setcounter{subtable}{0}
\setcounter{lstnumber}{1}
\setcounter{section@level}{1}
\setcounter{lstlisting}{0}
}
