\relax 
\providecommand\hyper@newdestlabel[2]{}
\@writefile{toc}{\contentsline {chapter}{\numberline {1}Introdu\IeC {\c c}\IeC {\~a}o}{1}{chapter.1}}
\@writefile{lof}{\addvspace {10\p@ }}
\@writefile{lot}{\addvspace {10\p@ }}
\newlabel{chap:intro}{{1}{1}{Introdução}{chapter.1}{}}
\@writefile{toc}{\contentsline {section}{\numberline {1.1}Apresenta\IeC {\c c}\IeC {\~a}o da Indra}{1}{section.1.1}}
\@writefile{toc}{\contentsline {section}{\numberline {1.2}Enquadramento}{2}{section.1.2}}
\newlabel{sec:context}{{1.2}{2}{Enquadramento}{section.1.2}{}}
\@writefile{toc}{\contentsline {section}{\numberline {1.3}Problema e Caracteriza\IeC {\c c}\IeC {\~a}o}{2}{section.1.3}}
\newlabel{sec:problem}{{1.3}{2}{Problema e Caracterização}{section.1.3}{}}
\@writefile{toc}{\contentsline {section}{\numberline {1.4}Motiva\IeC {\c c}\IeC {\~a}o e Objetivos}{3}{section.1.4}}
\newlabel{sec:goals}{{1.4}{3}{Motivação e Objetivos}{section.1.4}{}}
\@writefile{toc}{\contentsline {section}{\numberline {1.5}Benef\IeC {\'\i }cios da Solu\IeC {\c c}\IeC {\~a}o}{3}{section.1.5}}
\newlabel{sec:benefits}{{1.5}{3}{Benefícios da Solução}{section.1.5}{}}
\@writefile{toc}{\contentsline {section}{\numberline {1.6}Estrutura}{3}{section.1.6}}
\newlabel{sec:struct}{{1.6}{3}{Estrutura}{section.1.6}{}}
\@setckpt{chapter1}{
\setcounter{page}{4}
\setcounter{equation}{0}
\setcounter{enumi}{0}
\setcounter{enumii}{0}
\setcounter{enumiii}{0}
\setcounter{enumiv}{0}
\setcounter{footnote}{0}
\setcounter{mpfootnote}{0}
\setcounter{part}{0}
\setcounter{chapter}{1}
\setcounter{section}{6}
\setcounter{subsection}{0}
\setcounter{subsubsection}{0}
\setcounter{paragraph}{0}
\setcounter{subparagraph}{0}
\setcounter{figure}{0}
\setcounter{table}{0}
\setcounter{ContinuedFloat}{0}
\setcounter{linenumber}{0}
\setcounter{LN@truepage}{23}
\setcounter{Item}{0}
\setcounter{Hfootnote}{0}
\setcounter{bookmark@seq@number}{11}
\setcounter{float@type}{8}
\setcounter{AM@survey}{0}
\setcounter{LT@tables}{0}
\setcounter{LT@chunks}{0}
\setcounter{cp@cntr}{0}
\setcounter{subfigure}{0}
\setcounter{subtable}{0}
\setcounter{lstnumber}{1}
\setcounter{section@level}{1}
\setcounter{lstlisting}{0}
}
