\relax 
\providecommand\hyper@newdestlabel[2]{}
\@writefile{toc}{\contentsline {chapter}{\numberline {6}Resultados}{45}{chapter.6}}
\@writefile{lof}{\addvspace {10\p@ }}
\@writefile{lot}{\addvspace {10\p@ }}
\newlabel{chap:6}{{6}{45}{Resultados}{chapter.6}{}}
\@writefile{toc}{\contentsline {section}{\numberline {6.1}Opera\IeC {\c c}\IeC {\~a}o e execu\IeC {\c c}\IeC {\~a}o}{45}{section.6.1}}
\@writefile{toc}{\contentsline {section}{\numberline {6.2}Grau de corre\IeC {\c c}\IeC {\~a}o e utilidade dos resultados}{45}{section.6.2}}
\@writefile{lof}{\contentsline {figure}{\numberline {6.1}{\ignorespaces M\IeC {\'o}dulo do \textit  {Back Offce} para a Gest\IeC {\~a}o Acad\IeC {\'e}mica\relax }}{45}{figure.caption.44}}
\newlabel{fig:test1}{{6.1}{45}{Módulo do \textit {Back Offce} para a Gestão Académica\relax }{figure.caption.44}{}}
\@writefile{lof}{\contentsline {figure}{\numberline {6.2}{\ignorespaces Interface para agendamento dos processos\relax }}{46}{figure.caption.45}}
\newlabel{fig:test1}{{6.2}{46}{Interface para agendamento dos processos\relax }{figure.caption.45}{}}
\@writefile{toc}{\contentsline {section}{\numberline {6.3}Interfaces e exemplos}{46}{section.6.3}}
\@writefile{toc}{\contentsline {subsection}{\numberline {6.3.1}Plataforma Colaborativa - \textit  {Sharepoint}}{47}{subsection.6.3.1}}
\@writefile{lof}{\contentsline {figure}{\numberline {6.3}{\ignorespaces P\IeC {\'a}gina inicial da solu\IeC {\c c}\IeC {\~a}o\relax }}{47}{figure.caption.46}}
\newlabel{fig:homepage_sharepoint}{{6.3}{47}{Página inicial da solução\relax }{figure.caption.46}{}}
\newlabel{fig:homepage_powerview}{{6.4a}{47}{\textit {Dashboards} produzidos em \textit {Power View}\relax }{figure.caption.47}{}}
\newlabel{sub@fig:homepage_powerview}{{a}{47}{\textit {Dashboards} produzidos em \textit {Power View}\relax }{figure.caption.47}{}}
\newlabel{fig:sharepoint_powerview}{{6.4b}{47}{Exemplo de um \textit {dashboards}\relax }{figure.caption.47}{}}
\newlabel{sub@fig:sharepoint_powerview}{{b}{47}{Exemplo de um \textit {dashboards}\relax }{figure.caption.47}{}}
\@writefile{lof}{\contentsline {figure}{\numberline {6.4}{\ignorespaces Utiliza\IeC {\c c}\IeC {\~a}o do \textit  {Power View}\relax }}{47}{figure.caption.47}}
\newlabel{fig:powerview}{{6.4}{47}{Utilização do \textit {Power View}\relax }{figure.caption.47}{}}
\newlabel{fig:homepage_excel}{{6.5a}{47}{\textit {Reports} produzidos em \textit {Excel}\relax }{figure.caption.48}{}}
\newlabel{sub@fig:homepage_excel}{{a}{47}{\textit {Reports} produzidos em \textit {Excel}\relax }{figure.caption.48}{}}
\newlabel{fig:excel_sharepoint}{{6.5b}{47}{Exemplo de um \textit {report} \relax }{figure.caption.48}{}}
\newlabel{sub@fig:excel_sharepoint}{{b}{47}{Exemplo de um \textit {report} \relax }{figure.caption.48}{}}
\@writefile{lof}{\contentsline {figure}{\numberline {6.5}{\ignorespaces Utiliza\IeC {\c c}\IeC {\~a}o do \textit  {Excel Services}\relax }}{47}{figure.caption.48}}
\newlabel{fig:excelservices}{{6.5}{47}{Utilização do \textit {Excel Services}\relax }{figure.caption.48}{}}
\@writefile{toc}{\contentsline {subsection}{\numberline {6.3.2}\textit  {Power BI}}{48}{subsection.6.3.2}}
\@writefile{lof}{\contentsline {figure}{\numberline {6.6}{\ignorespaces \textit  {Report} na vers\IeC {\~a}o \textit  {Web}\relax }}{48}{figure.caption.49}}
\newlabel{fig:testes}{{6.6}{48}{\textit {Report} na versão \textit {Web}\relax }{figure.caption.49}{}}
\@writefile{lof}{\contentsline {figure}{\numberline {6.7}{\ignorespaces \textit  {Report} num dispositivo \textit  {Android}\relax }}{48}{figure.caption.50}}
\newlabel{fig:test1}{{6.7}{48}{\textit {Report} num dispositivo \textit {Android}\relax }{figure.caption.50}{}}
\@writefile{lof}{\contentsline {figure}{\numberline {6.8}{\ignorespaces \textit  {Report} num dispositivo \textit  {iOS}\relax }}{48}{figure.caption.50}}
\newlabel{fig:test2}{{6.8}{48}{\textit {Report} num dispositivo \textit {iOS}\relax }{figure.caption.50}{}}
\@setckpt{chapter6}{
\setcounter{page}{49}
\setcounter{equation}{0}
\setcounter{enumi}{0}
\setcounter{enumii}{0}
\setcounter{enumiii}{0}
\setcounter{enumiv}{0}
\setcounter{footnote}{0}
\setcounter{mpfootnote}{0}
\setcounter{part}{0}
\setcounter{chapter}{6}
\setcounter{section}{3}
\setcounter{subsection}{2}
\setcounter{subsubsection}{0}
\setcounter{paragraph}{0}
\setcounter{subparagraph}{0}
\setcounter{figure}{8}
\setcounter{table}{0}
\setcounter{ContinuedFloat}{0}
\setcounter{linenumber}{0}
\setcounter{LN@truepage}{68}
\setcounter{Item}{0}
\setcounter{Hfootnote}{0}
\setcounter{bookmark@seq@number}{53}
\setcounter{float@type}{8}
\setcounter{AM@survey}{0}
\setcounter{LT@tables}{0}
\setcounter{LT@chunks}{0}
\setcounter{cp@cntr}{0}
\setcounter{subfigure}{0}
\setcounter{subtable}{0}
\setcounter{lstnumber}{1}
\setcounter{section@level}{2}
\setcounter{lstlisting}{0}
}
