\relax 
\providecommand\hyper@newdestlabel[2]{}
\@writefile{toc}{\contentsline {chapter}{\numberline {4}Arquitetura}{25}{chapter.4}}
\@writefile{lof}{\addvspace {10\p@ }}
\@writefile{lot}{\addvspace {10\p@ }}
\newlabel{chap:4}{{4}{25}{Arquitetura}{chapter.4}{}}
\@writefile{lof}{\contentsline {figure}{\numberline {4.1}{\ignorespaces Arquitetura da Solu\IeC {\c c}\IeC {\~a}o Proposta\relax }}{25}{figure.caption.19}}
\newlabel{fig:arquitecture}{{4.1}{25}{Arquitetura da Solução Proposta\relax }{figure.caption.19}{}}
\@writefile{toc}{\contentsline {section}{\numberline {4.1}Sistemas Fonte Operacionais}{25}{section.4.1}}
\@writefile{lof}{\contentsline {figure}{\numberline {4.2}{\ignorespaces \textit  {Package} do \textit  {Integration Services} para carregamento da informa\IeC {\c c}\IeC {\~a}o do CNA\relax }}{26}{figure.caption.20}}
\newlabel{fig:integrationservices}{{4.2}{26}{\textit {Package} do \textit {Integration Services} para carregamento da informação do CNA\relax }{figure.caption.20}{}}
\@writefile{toc}{\contentsline {subsection}{\numberline {4.1.1}Concurso Nacional de Acesso}{26}{subsection.4.1.1}}
\@writefile{toc}{\contentsline {subsection}{\numberline {4.1.2}Inqu\IeC {\'e}ritos RAIDES}{26}{subsection.4.1.2}}
\@writefile{lof}{\contentsline {figure}{\numberline {4.3}{\ignorespaces Exemplo da estrutura do ficheiro RAIDES\relax }}{27}{figure.caption.21}}
\newlabel{fig:arquitecture}{{4.3}{27}{Exemplo da estrutura do ficheiro RAIDES\relax }{figure.caption.21}{}}
\@writefile{toc}{\contentsline {subsection}{\numberline {4.1.3}Vagas}{27}{subsection.4.1.3}}
\@writefile{lof}{\contentsline {figure}{\numberline {4.4}{\ignorespaces Exemplo da estrutura do ficheiro vagas\relax }}{27}{figure.caption.22}}
\newlabel{fig:arquitecture}{{4.4}{27}{Exemplo da estrutura do ficheiro vagas\relax }{figure.caption.22}{}}
\@writefile{toc}{\contentsline {subsection}{\numberline {4.1.4}Sistema de inform\IeC {\c c}\IeC {\~a}o Gest\IeC {\~a}o Acad\IeC {\'e}mica}{27}{subsection.4.1.4}}
\@writefile{toc}{\contentsline {subsection}{\numberline {4.1.5}\textit  {ERP} - GIAF}{28}{subsection.4.1.5}}
\@writefile{toc}{\contentsline {section}{\numberline {4.2}\textit  {Data Staging Area} }{28}{section.4.2}}
\@writefile{toc}{\contentsline {section}{\numberline {4.3}\textit  {Data Presentation Area} }{28}{section.4.3}}
\@writefile{toc}{\contentsline {section}{\numberline {4.4}Ferramentas de acesso aos dados}{28}{section.4.4}}
\@setckpt{chapter4}{
\setcounter{page}{29}
\setcounter{equation}{0}
\setcounter{enumi}{0}
\setcounter{enumii}{0}
\setcounter{enumiii}{0}
\setcounter{enumiv}{0}
\setcounter{footnote}{0}
\setcounter{mpfootnote}{0}
\setcounter{part}{0}
\setcounter{chapter}{4}
\setcounter{section}{4}
\setcounter{subsection}{0}
\setcounter{subsubsection}{0}
\setcounter{paragraph}{0}
\setcounter{subparagraph}{0}
\setcounter{figure}{4}
\setcounter{table}{0}
\setcounter{ContinuedFloat}{0}
\setcounter{linenumber}{0}
\setcounter{LN@truepage}{48}
\setcounter{Item}{0}
\setcounter{Hfootnote}{0}
\setcounter{bookmark@seq@number}{38}
\setcounter{float@type}{8}
\setcounter{AM@survey}{0}
\setcounter{LT@tables}{0}
\setcounter{LT@chunks}{0}
\setcounter{cp@cntr}{0}
\setcounter{subfigure}{0}
\setcounter{subtable}{0}
\setcounter{lstnumber}{1}
\setcounter{section@level}{1}
\setcounter{lstlisting}{0}
}
