\relax 
\providecommand\hyper@newdestlabel[2]{}
\citation{Tableau}
\@writefile{toc}{\contentsline {chapter}{\numberline {3}Requisitos e Funcionalidades}{21}{chapter.3}}
\@writefile{lof}{\addvspace {10\p@ }}
\@writefile{lot}{\addvspace {10\p@ }}
\newlabel{chap:3}{{3}{21}{Requisitos e Funcionalidades}{chapter.3}{}}
\@writefile{toc}{\contentsline {section}{\numberline {3.1}Requisitos Funcionais}{21}{section.3.1}}
\newlabel{sec:anexoa}{{3.1}{21}{Requisitos Funcionais}{section.3.1}{}}
\@writefile{toc}{\contentsline {subsection}{\numberline {3.1.1}Procura do Ciclo de Estudos}{21}{subsection.3.1.1}}
\@writefile{toc}{\contentsline {subsection}{\numberline {3.1.2}Efic\IeC {\'a}cia Formativa e Resultados dos Estudantes}{22}{subsection.3.1.2}}
\@writefile{toc}{\contentsline {subsection}{\numberline {3.1.3}Receita}{22}{subsection.3.1.3}}
\@writefile{toc}{\contentsline {subsection}{\numberline {3.1.4}Custos}{23}{subsection.3.1.4}}
\@writefile{toc}{\contentsline {section}{\numberline {3.2}Requisitos T\IeC {\'e}cnicos}{23}{section.3.2}}
\@setckpt{chapter3}{
\setcounter{page}{24}
\setcounter{equation}{0}
\setcounter{enumi}{0}
\setcounter{enumii}{0}
\setcounter{enumiii}{0}
\setcounter{enumiv}{0}
\setcounter{footnote}{0}
\setcounter{mpfootnote}{0}
\setcounter{part}{0}
\setcounter{chapter}{3}
\setcounter{section}{2}
\setcounter{subsection}{0}
\setcounter{subsubsection}{0}
\setcounter{paragraph}{0}
\setcounter{subparagraph}{0}
\setcounter{figure}{0}
\setcounter{table}{0}
\setcounter{ContinuedFloat}{0}
\setcounter{linenumber}{0}
\setcounter{LN@truepage}{43}
\setcounter{Item}{0}
\setcounter{Hfootnote}{0}
\setcounter{bookmark@seq@number}{28}
\setcounter{float@type}{8}
\setcounter{AM@survey}{0}
\setcounter{LT@tables}{0}
\setcounter{LT@chunks}{0}
\setcounter{cp@cntr}{0}
\setcounter{subfigure}{0}
\setcounter{subtable}{0}
\setcounter{lstnumber}{1}
\setcounter{section@level}{1}
\setcounter{lstlisting}{0}
}
