\relax 
\providecommand\hyper@newdestlabel[2]{}
\citation{kn:ISMerriam}
\citation{kn:ISDevenport}
\citation{kn:ISRezende}
\citation{kn:ISBook}
\@writefile{toc}{\contentsline {chapter}{\numberline {2}Enquadramento Te\IeC {\'o}rico}{5}{chapter.2}}
\@writefile{lof}{\addvspace {10\p@ }}
\@writefile{lot}{\addvspace {10\p@ }}
\newlabel{chap:2}{{2}{5}{Enquadramento Teórico}{chapter.2}{}}
\@writefile{toc}{\contentsline {section}{\numberline {2.1}Sistemas de Informa\IeC {\c c}\IeC {\~a}o}{5}{section.2.1}}
\citation{kn:ISJessup}
\citation{kn:ISAlter}
\citation{kn:ISBulgacs}
\citation{kn:ISKroenke}
\citation{kn:ISLaudon}
\@writefile{lof}{\contentsline {figure}{\numberline {2.1}{\ignorespaces Modelo de pir\IeC {\^a}mide dos Sistemas de Informa\IeC {\c c}\IeC {\~a}o \relax }}{6}{figure.caption.8}}
\providecommand*\caption@xref[2]{\@setref\relax\@undefined{#1}}
\newlabel{fig:arquitecture}{{2.1}{6}{Modelo de pirâmide dos Sistemas de Informação \relax }{figure.caption.8}{}}
\citation{kn:OBrien}
\citation{kn:Sprague}
\citation{kn:ISDevens}
\citation{kn:ISHans}
\citation{kn:Dresner}
\citation{kn:Thomsen}
\citation{kn:ISNegash}
\citation{kn:BIObjs}
\@writefile{lof}{\contentsline {figure}{\numberline {2.2}{\ignorespaces Modelo \textit  {ERP} \relax }}{8}{figure.caption.9}}
\newlabel{fig:erpmodules}{{2.2}{8}{Modelo \textit {ERP} \relax }{figure.caption.9}{}}
\@writefile{toc}{\contentsline {section}{\numberline {2.2}Sistemas de \textit  {Business Intelligence} }{8}{section.2.2}}
\citation{kn:SPCarlson}
\citation{Kn:Turban}
\citation{Kn:KimballRoss}
\citation{Kn:InmonDW}
\citation{Kn:ISPaulraj}
\@writefile{toc}{\contentsline {subsection}{\numberline {2.2.1}Conceito de Data Warehouse}{9}{subsection.2.2.1}}
\@writefile{toc}{\contentsline {subsubsection}{\numberline {2.2.1.1}Metodologia Inmon}{9}{subsubsection.2.2.1.1}}
\citation{Kn:George}
\citation{Kn:George}
\citation{Kn:George}
\citation{Kn:George}
\citation{Kn:Sabhewal}
\@writefile{toc}{\contentsline {subsubsection}{\numberline {2.2.1.2}Metodologia Kimball}{10}{subsubsection.2.2.1.2}}
\@writefile{toc}{\contentsline {subsubsection}{\numberline {2.2.1.3}Metodologia Inmon vs Metodologia Kimball}{10}{subsubsection.2.2.1.3}}
\@writefile{lot}{\contentsline {table}{\numberline {2.1}{\ignorespaces Metodologia Inmon vs Metodologia Kimball. Fonte: ~\cite  {Kn:George} \relax }}{10}{table.caption.10}}
\newlabel{tab:inmonkimball}{{2.1}{10}{Metodologia Inmon vs Metodologia Kimball. Fonte: ~\cite {Kn:George} \relax }{table.caption.10}{}}
\@writefile{lot}{\contentsline {table}{\numberline {2.2}{\ignorespaces Vantagens e Desvantagens das metodologias. Fonte: ~\cite  {Kn:George} \relax }}{10}{table.caption.11}}
\newlabel{tab:inmonvskimball}{{2.2}{10}{Vantagens e Desvantagens das metodologias. Fonte: ~\cite {Kn:George} \relax }{table.caption.11}{}}
\@writefile{toc}{\contentsline {subsubsection}{\numberline {2.2.1.4}Modela\IeC {\c c}\IeC {\~a}o entidade-rela\IeC {\c c}\IeC {\~a}o}{10}{subsubsection.2.2.1.4}}
\citation{Kn:Boehnlein}
\citation{kn:Nuno}
\citation{kn:Nuno}
\@writefile{lof}{\contentsline {figure}{\numberline {2.3}{\ignorespaces Arquitetura do \textit  {DW} proposta por Inmon Fonte:~\cite  {kn:Nuno}\relax }}{11}{figure.caption.12}}
\newlabel{fig:arquitectureinmon}{{2.3}{11}{Arquitetura do \textit {DW} proposta por Inmon Fonte:~\cite {kn:Nuno}\relax }{figure.caption.12}{}}
\@writefile{toc}{\contentsline {subsubsection}{\numberline {2.2.1.5}Modela\IeC {\c c}\IeC {\~a}o dimensional}{11}{subsubsection.2.2.1.5}}
\citation{kn:Kimbal2012}
\citation{kn:CJDate}
\citation{kn:KimballToolkit}
\citation{kn:KimballToolkit}
\@writefile{lof}{\contentsline {figure}{\numberline {2.4}{\ignorespaces \textit  {Star Schema} \relax }}{12}{figure.caption.13}}
\newlabel{fig:starschema}{{2.4}{12}{\textit {Star Schema} \relax }{figure.caption.13}{}}
\@writefile{toc}{\contentsline {subsection}{\numberline {2.2.2}Arquitetura de um Data Warehouse}{12}{subsection.2.2.2}}
\citation{kn:BallouTayi}
\citation{kn:KimballRoss2002}
\citation{kn:Ponniah2001}
\@writefile{lof}{\contentsline {figure}{\numberline {2.5}{\ignorespaces Arquitetura do \textit  {DW} proposta por Kimball Fonte: ~\cite  {kn:KimballToolkit}\relax }}{13}{figure.caption.14}}
\newlabel{fig:arquitecturekimball}{{2.5}{13}{Arquitetura do \textit {DW} proposta por Kimball Fonte: ~\cite {kn:KimballToolkit}\relax }{figure.caption.14}{}}
\@writefile{toc}{\contentsline {subsubsection}{\numberline {2.2.2.1}Sistemas Fonte Operacionais}{13}{subsubsection.2.2.2.1}}
\@writefile{toc}{\contentsline {subsubsection}{\numberline {2.2.2.2}\textit  {Data Staging Area} }{13}{subsubsection.2.2.2.2}}
\@writefile{toc}{\contentsline {paragraph}{\textit  {Processing}}{13}{section*.15}}
\citation{Kn:NestorovJukic}
\@writefile{toc}{\contentsline {paragraph}{\textit  {Data Store} }{14}{section*.16}}
\@writefile{toc}{\contentsline {subsubsection}{\numberline {2.2.2.3}\textit  {Data Presentation Area} }{14}{subsubsection.2.2.2.3}}
\@writefile{toc}{\contentsline {subsubsection}{\numberline {2.2.2.4}Ferramentas de acesso aos dados}{14}{subsubsection.2.2.2.4}}
\@writefile{toc}{\contentsline {section}{\numberline {2.3}\IeC {\^A}mbito da solu\IeC {\c c}\IeC {\~a}o}{14}{section.2.3}}
\@writefile{toc}{\contentsline {subsection}{\numberline {2.3.1}Gest\IeC {\~a}o Acad\IeC {\'e}mica}{14}{subsection.2.3.1}}
\citation{kn:Raides}
\@writefile{toc}{\contentsline {subsection}{\numberline {2.3.2}Projetos Existentes}{15}{subsection.2.3.2}}
\citation{kn:Arqu}
\citation{kn:SecondCenas}
\citation{kn:Nuno}
\citation{kn:Duarte}
\@writefile{toc}{\contentsline {subsection}{\numberline {2.3.3}Solu\IeC {\c c}\IeC {\~a}o Atual - iBISmartGiaf}{16}{subsection.2.3.3}}
\@writefile{lof}{\contentsline {figure}{\numberline {2.6}{\ignorespaces Arquitetura da solu\IeC {\c c}\IeC {\~a}o atual - \textit  {iBISmartGIAF}\relax }}{16}{figure.caption.17}}
\newlabel{fig:arquiteturaold}{{2.6}{16}{Arquitetura da solução atual - \textit {iBISmartGIAF}\relax }{figure.caption.17}{}}
\citation{kn:bisite}
\citation{kn:powerbi}
\citation{kn:obiee}
\citation{kn:pentaho}
\citation{kn:microsotrategy}
\citation{kn:qlik}
\@writefile{lof}{\contentsline {figure}{\numberline {2.7}{\ignorespaces Portal de \textit  {Back Office} - \textit  {iBISmartGIAF} \relax }}{17}{figure.caption.18}}
\newlabel{fig:backofficeold}{{2.7}{17}{Portal de \textit {Back Office} - \textit {iBISmartGIAF} \relax }{figure.caption.18}{}}
\@writefile{toc}{\contentsline {subsection}{\numberline {2.3.4}Tecnologias}{17}{subsection.2.3.4}}
\@setckpt{chapter2}{
\setcounter{page}{20}
\setcounter{equation}{0}
\setcounter{enumi}{0}
\setcounter{enumii}{0}
\setcounter{enumiii}{0}
\setcounter{enumiv}{0}
\setcounter{footnote}{0}
\setcounter{mpfootnote}{0}
\setcounter{part}{0}
\setcounter{chapter}{2}
\setcounter{section}{3}
\setcounter{subsection}{4}
\setcounter{subsubsection}{0}
\setcounter{paragraph}{0}
\setcounter{subparagraph}{0}
\setcounter{figure}{7}
\setcounter{table}{2}
\setcounter{ContinuedFloat}{0}
\setcounter{linenumber}{0}
\setcounter{LN@truepage}{39}
\setcounter{Item}{0}
\setcounter{Hfootnote}{0}
\setcounter{bookmark@seq@number}{21}
\setcounter{float@type}{8}
\setcounter{AM@survey}{0}
\setcounter{LT@tables}{0}
\setcounter{LT@chunks}{0}
\setcounter{cp@cntr}{0}
\setcounter{subfigure}{0}
\setcounter{subtable}{0}
\setcounter{lstnumber}{1}
\setcounter{section@level}{2}
\setcounter{lstlisting}{0}
}
