\select@language {portuges}
\addvspace {10\p@ }
\addvspace {10\p@ }
\contentsline {figure}{\numberline {2.1}{\ignorespaces Modelo de pir\IeC {\^a}mide dos Sistemas de Informa\IeC {\c c}\IeC {\~a}o \relax }}{6}{figure.caption.8}
\contentsline {figure}{\numberline {2.2}{\ignorespaces Modelo \textit {ERP} \relax }}{8}{figure.caption.9}
\contentsline {figure}{\numberline {2.3}{\ignorespaces Arquitetura do \textit {DW} proposta por Inmon Fonte:~\cite {kn:Nuno}\relax }}{11}{figure.caption.12}
\contentsline {figure}{\numberline {2.4}{\ignorespaces \textit {Star Schema} \relax }}{12}{figure.caption.13}
\contentsline {figure}{\numberline {2.5}{\ignorespaces Arquitetura do \textit {DW} proposta por Kimball Fonte: ~\cite {kn:KimballToolkit}\relax }}{13}{figure.caption.14}
\contentsline {figure}{\numberline {2.6}{\ignorespaces Arquitetura da solu\IeC {\c c}\IeC {\~a}o atual - \textit {iBISmartGIAF}\relax }}{16}{figure.caption.17}
\contentsline {figure}{\numberline {2.7}{\ignorespaces Portal de \textit {Back Office} - \textit {iBISmartGIAF} \relax }}{17}{figure.caption.18}
\addvspace {10\p@ }
\addvspace {10\p@ }
\contentsline {figure}{\numberline {4.1}{\ignorespaces Arquitetura da Solu\IeC {\c c}\IeC {\~a}o Proposta\relax }}{25}{figure.caption.19}
\contentsline {figure}{\numberline {4.2}{\ignorespaces \textit {Package} do \textit {Integration Services} para carregamento da informa\IeC {\c c}\IeC {\~a}o do CNA\relax }}{26}{figure.caption.20}
\contentsline {figure}{\numberline {4.3}{\ignorespaces Exemplo da estrutura do ficheiro RAIDES\relax }}{27}{figure.caption.21}
\contentsline {figure}{\numberline {4.4}{\ignorespaces Exemplo da estrutura do ficheiro vagas\relax }}{27}{figure.caption.22}
\addvspace {10\p@ }
\contentsline {figure}{\numberline {5.1}{\ignorespaces Metodologia MIDAS e Metodologia MIGP\relax }}{30}{figure.caption.23}
\contentsline {figure}{\numberline {5.2}{\ignorespaces Fases de desenvolvimento da Solu\IeC {\c c}\IeC {\~a}o\relax }}{30}{figure.caption.24}
\contentsline {figure}{\numberline {5.3}{\ignorespaces Plano de Trabalhos\relax }}{31}{figure.caption.25}
\contentsline {figure}{\numberline {5.4}{\ignorespaces Processo de \textit {ETL} para a dimens\IeC {\~a}o da nacionalidade\relax }}{33}{figure.caption.27}
\contentsline {figure}{\numberline {5.5}{\ignorespaces Processo de \textit {ETL} para o carregamento do facto das vagas\relax }}{34}{figure.caption.29}
\contentsline {figure}{\numberline {5.6}{\ignorespaces \textit {Star-schema} para o facto das vagas\relax }}{35}{figure.caption.30}
\contentsline {figure}{\numberline {5.7}{\ignorespaces Estrutura da \textit {Data Presentation Area} no \textit {Visual Studio}\relax }}{36}{figure.caption.31}
\contentsline {figure}{\numberline {5.8}{\ignorespaces Camada F\IeC {\'\i }sica da \textit {Data Presentation Area}\relax }}{36}{figure.caption.32}
\contentsline {figure}{\numberline {5.9}{\ignorespaces Camada de Neg\IeC {\'o}cio da \textit {Data Presentation Area}\relax }}{37}{figure.caption.33}
\contentsline {figure}{\numberline {5.10}{\ignorespaces Exemplo da dimens\IeC {\~a}o temporal no \textit {Visual Studio}\relax }}{38}{figure.caption.35}
\contentsline {figure}{\numberline {5.11}{\ignorespaces Exemplo da \textit {bus matrix} no \textit {Visual Studio}\relax }}{39}{figure.caption.37}
\contentsline {figure}{\numberline {5.12}{\ignorespaces Sintaxe \textit {MDX} para a cria\IeC {\c c}\IeC {\~a}o de indicadores\relax }}{40}{figure.caption.38}
\contentsline {figure}{\numberline {5.13}{\ignorespaces \textit {Template} dos testes de aceita\IeC {\c c}\IeC {\~a}o realizados \IeC {\`a}s plataformas aplicacionais\relax }}{42}{figure.caption.42}
\contentsline {figure}{\numberline {5.14}{\ignorespaces Arquitetura final da solu\IeC {\c c}\IeC {\~a}o\relax }}{43}{figure.caption.43}
\addvspace {10\p@ }
\contentsline {figure}{\numberline {6.1}{\ignorespaces M\IeC {\'o}dulo do \textit {Back Offce} para a Gest\IeC {\~a}o Acad\IeC {\'e}mica\relax }}{45}{figure.caption.44}
\contentsline {figure}{\numberline {6.2}{\ignorespaces Interface para agendamento dos processos\relax }}{46}{figure.caption.45}
\contentsline {figure}{\numberline {6.3}{\ignorespaces P\IeC {\'a}gina inicial da solu\IeC {\c c}\IeC {\~a}o\relax }}{47}{figure.caption.46}
\contentsline {figure}{\numberline {6.4}{\ignorespaces Utiliza\IeC {\c c}\IeC {\~a}o do \textit {Power View}\relax }}{47}{figure.caption.47}
\contentsline {figure}{\numberline {6.5}{\ignorespaces Utiliza\IeC {\c c}\IeC {\~a}o do \textit {Excel Services}\relax }}{47}{figure.caption.48}
\contentsline {figure}{\numberline {6.6}{\ignorespaces \textit {Report} na vers\IeC {\~a}o \textit {Web}\relax }}{48}{figure.caption.49}
\contentsline {figure}{\numberline {6.7}{\ignorespaces \textit {Report} num dispositivo \textit {Android}\relax }}{48}{figure.caption.50}
\contentsline {figure}{\numberline {6.8}{\ignorespaces \textit {Report} num dispositivo \textit {iOS}\relax }}{48}{figure.caption.50}
\addvspace {10\p@ }
