\relax 
\providecommand\hyper@newdestlabel[2]{}
\catcode `"\active 
\providecommand\HyperFirstAtBeginDocument{\AtBeginDocument}
\HyperFirstAtBeginDocument{\ifx\hyper@anchor\@undefined
\global\let\oldcontentsline\contentsline
\gdef\contentsline#1#2#3#4{\oldcontentsline{#1}{#2}{#3}}
\global\let\oldnewlabel\newlabel
\gdef\newlabel#1#2{\newlabelxx{#1}#2}
\gdef\newlabelxx#1#2#3#4#5#6{\oldnewlabel{#1}{{#2}{#3}}}
\AtEndDocument{\ifx\hyper@anchor\@undefined
\let\contentsline\oldcontentsline
\let\newlabel\oldnewlabel
\fi}
\fi}
\global\let\hyper@last\relax 
\gdef\HyperFirstAtBeginDocument#1{#1}
\providecommand\HyField@AuxAddToFields[1]{}
\providecommand\HyField@AuxAddToCoFields[2]{}
\providecommand \oddpage@label [2]{}
\select@language{portuges}
\@writefile{toc}{\select@language{portuges}}
\@writefile{lof}{\select@language{portuges}}
\@writefile{lot}{\select@language{portuges}}
\@input{abstract.aux}
\@input{acknows.aux}
\@input{quote.aux}
\citation{kn:Nuno}
\citation{kn:KimballToolkit}
\citation{Kn:George}
\citation{Kn:George}
\@input{abbrevs.aux}
\@input{chapter1.aux}
\@input{chapter2.aux}
\@input{chapter3.aux}
\@input{chapter4.aux}
\@input{chapter5.aux}
\@input{chapter6.aux}
\@input{chapter7.aux}
\bibstyle{alpha-pt}
\bibdata{myrefs}
\bibcite{kn:ISAlter}{{Alt}65}
\bibcite{kn:ISBulgacs}{{Bul}13}
\bibcite{kn:Arqu}{{Cos}12}
\bibcite{kn:Raides}{dE16}
\bibcite{kn:ISDevens}{{Dev}65}
\bibcite{kn:ISBook}{{ED'}08}
\bibcite{Kn:George}{{Ger}12}
\bibcite{kn:ISJessup}{{Jes}08}
\bibcite{kn:ISKroenke}{{Kro}08}
\bibcite{kn:ISLaudon}{{Lau}88}
\bibcite{kn:ISHans}{{Luh}58}
\bibcite{kn:ISMerriam}{Mer}
\bibcite{kn:bisite}{Mic16}
\bibcite{kn:ISNegash}{{Neg}04}
\@writefile{toc}{\contentsline {chapter}{Refer\^{e}ncias}{53}{section*.51}}
\bibcite{kn:SecondCenas}{{Nun}10}
\bibcite{kn:OBrien}{{O'B}99}
\bibcite{kn:obiee}{Ora16}
\bibcite{kn:pentaho}{Pen}
\bibcite{Kn:ISPaulraj}{{Pon}10}
\bibcite{kn:Sprague}{{Spr}80}
\bibcite{kn:SPCarlson}{{Spr}82}
\bibcite{Tableau}{Tab}
\bibcite{kn:Thomsen}{{Tho}03}
\bibcite{Kn:Turban}{{Tur}09}
\bibcite{kn:BIObjs}{{Wil}08}
\@input{anexoa.aux}
\@input{anexob.aux}
\newlabel{anexob}{{7.5}{58}{Anexo C - Manual Especificação Técnica}{section*.58}{}}
